<svg width="250" height="250" xmlns="http://www.w3.org/2000/svg">
 <!-- Created with Method Draw - http://github.com/duopixel/Method-Draw/ -->
 <g>
  <title>background</title>
  <rect fill="none" id="canvas_background" height="252" width="252" y="-1" x="-1"/>
  <g display="none" overflow="visible" y="0" x="0" height="100%" width="100%" id="canvasGrid">
   <rect fill="url(#gridpattern)" stroke-width="0" y="0" x="0" height="100%" width="100%"/>
  </g>
 </g>
 <g>
  <title>Layer 1</title>
  <path id="svg_1" d="m96.549992,232.258397c-31.079994,-11.678562 -53.357103,-48.786965 -48.294411,-80.447151c3.192381,-19.964151 70.543587,-141.16047 76.42548,-137.525261c1.919771,1.186478 19.003339,29.442425 37.963484,62.791005c30.372157,53.420907 34.47297,63.382255 34.47297,83.738836c0,41.261949 -33.022661,75.060166 -72.673208,74.380004c-11.570589,-0.198508 -24.123038,-1.520349 -27.894315,-2.937426l0,-0.000007zm31.138642,-20.753243c1.028761,-5.341956 -1.374372,-7.947206 -7.330737,-7.947206c-13.575167,0 -32.406126,-17.193312 -36.61325,-33.429126c-4.487858,-17.319205 -16.387168,-19.378976 -18.144761,-3.140847c-3.386244,31.285067 56.383933,74.13981 62.088741,44.517179l0.000007,0z" stroke-width="10" stroke="#000" fill="none"/>
 </g>
</svg>